GHDL/sumador_pf/sum_pf.vcd
$date
  Thu Nov  1 18:54:54 2018
$end
$version
  GHDL v0
$end
$timescale
  1 fs
$end
$scope module standard $end
$upscope $end
$scope module std_logic_1164 $end
$upscope $end
$scope module numeric_std $end
$upscope $end
$scope module textio $end
$upscope $end
$scope module pf_testbench $end
$var reg 1 ! clk $end
$var reg 25 " a_file[24:0] $end
$var reg 25 # b_file[24:0] $end
$var reg 25 $ z_file[24:0] $end
$var reg 25 % z_del[24:0] $end
$var reg 25 & z_dut[24:0] $end
$var integer 32 ' ciclos $end
$var integer 32 ( errores $end
$var reg 25 ) z_del_aux[24:0] $end
$scope module dut $end
$var reg 1 * clk $end
$var reg 25 + a[24:0] $end
$var reg 25 , b[24:0] $end
$var reg 25 - sal[24:0] $end
$upscope $end
$scope module del $end
$var reg 1 . clk $end
$var reg 25 / a[24:0] $end
$var reg 25 0 b[24:0] $end
$comment aux is not handled $end
$scope module gen_retardo(0) $end
$scope module sin_retardo $end
$upscope $end
$upscope $end
$upscope $end
$upscope $end
$enddefinitions $end
#0
0!
b0000000000000000000000000 "
b0000000000000000000000000 #
b0000000000000000000000000 $
b0000000000000000000000000 %
b0000000100000000000000000 &
b0 '
b0 (
b0000000000000000000000000 )
0*
b0000000000000000000000000 +
b0000000000000000000000000 ,
b0000000100000000000000000 -
0.
b0000000000000000000000000 /
b0000000000000000000000000 0
#10000000
1!
b0011110100001100111010001 "
b0011110111110110100010000 #
b0011111010000001101110000 $
b0011111010000001101110000 %
b0011111010000001101110000 &
b1 '
b1 (
b0011111010000001101110000 )
1*
b0011110100001100111010001 +
b0011110111110110100010000 ,
b0011111010000001101110000 -
1.
b0011111010000001101110000 /
b0011111010000001101110000 0
#20000000
0!
0*
0.
#30000000
1!
b1011100111100101101111110 "
b0011110110011010011100000 #
b0011110101111100000101000 $
b0011110101111100000101000 %
b0011110101111100000101000 &
b10 '
b0011110101111100000101000 )
1*
b1011100111100101101111110 +
b0011110110011010011100000 ,
b0011110101111100000101000 -
1.
b0011110101111100000101000 /
b0011110101111100000101000 0
#40000000
0!
0*
0.
#50000000
1!
b1011110000101001010100011 "
b1011110100111001000000010 #
b1011110111001101101010011 $
b1011110111001101101010011 %
b1011110111001101101010011 &
b11 '
b1011110111001101101010011 )
1*
b1011110000101001010100011 +
b1011110100111001000000010 ,
b1011110111001101101010011 -
1.
b1011110111001101101010011 /
b1011110111001101101010011 0
#60000000
0!
0*
0.
#70000000
1!
b0011100011111011101000110 "
b0011100010101100101010011 #
b0011100111010100001001100 $
b0011100111010100001001100 %
b0011100111010100001001100 &
b100 '
b0011100111010100001001100 )
1*
b0011100011111011101000110 +
b0011100010101100101010011 ,
b0011100111010100001001100 -
1.
b0011100111010100001001100 /
b0011100111010100001001100 0
#80000000
0!
0*
0.
#90000000
1!
b1011110110111001011001111 "
b1011101110000011011011011 #
b1011111000001101001000010 $
b1011111000001101001000010 %
b1011111000001101001000010 &
b101 '
b1011111000001101001000010 )
1*
b1011110110111001011001111 +
b1011101110000011011011011 ,
b1011111000001101001000010 -
1.
b1011111000001101001000010 /
b1011111000001101001000010 0
#100000000
0!
0*
0.
#110000000
1!
b1011101100010011111110111 "
b0011110000110010010010010 #
b0011101101010000100101101 $
b0011101101010000100101101 %
b0011101101010000100101101 &
b110 '
b0011101101010000100101101 )
1*
b1011101100010011111110111 +
b0011110000110010010010010 ,
b0011101101010000100101101 -
1.
b0011101101010000100101101 /
b0011101101010000100101101 0
#120000000
0!
0*
0.
#130000000
1!
b1011111000100110110110010 "
b0011110100011100101110001 #
b1011110100110000111110011 $
b1011110100110000111110011 %
b1011110100110000111110011 &
b111 '
b1011110100110000111110011 )
1*
b1011111000100110110110010 +
b0011110100011100101110001 ,
b1011110100110000111110011 -
1.
b1011110100110000111110011 /
b1011110100110000111110011 0
#140000000
0!
0*
0.
#150000000
1!
b0011110111011011001100110 "
b0011101010101111100010101 #
b0011111000001000100100100 $
b0011111000001000100100100 %
b0011111000001000100100100 &
b1000 '
b0011111000001000100100100 )
1*
b0011110111011011001100110 +
b0011101010101111100010101 ,
b0011111000001000100100100 -
1.
b0011111000001000100100100 /
b0011111000001000100100100 0
#160000000
0!
0*
0.
#170000000
1!
b1011110000101100100101001 "
b0011101101110000101101010 #
b1011101011010000111010000 $
b1011101011010000111010000 %
b1011101011010000111010000 &
b1001 '
b1011101011010000111010000 )
1*
b1011110000101100100101001 +
b0011101101110000101101010 ,
b1011101011010000111010000 -
1.
b1011101011010000111010000 /
b1011101011010000111010000 0
#180000000
0!
0*
0.
#190000000
1!
b0011110011011010110010101 "
b1011100101011011100111111 #
b0011110010101111010101101 $
b0011110010101111010101101 %
b0011110010101111010101101 &
b1010 '
b0011110010101111010101101 )
1*
b0011110011011010110010101 +
b1011100101011011100111111 ,
b0011110010101111010101101 -
1.
b0011110010101111010101101 /
b0011110010101111010101101 0
#200000000
0!
0*
0.
#210000000
1!
b0011111000111100111101000 "
b0011101001011101011011010 #
b0011111001010010110010101 $
b0011111001010010110010101 %
b0011111001010010110010101 &
b1011 '
b0011111001010010110010101 )
1*
b0011111000111100111101000 +
b0011101001011101011011010 ,
b0011111001010010110010101 -
1.
b0011111001010010110010101 /
b0011111001010010110010101 0
#220000000
0!
0*
0.
#230000000
1!
b1011110100010110010101110 "
b0011101100011101100111101 #
b1011110010011101110111101 $
b1011110010011101110111101 %
b1011110010011101110111101 &
b1100 '
b1011110010011101110111101 )
1*
b1011110100010110010101110 +
b0011101100011101100111101 ,
b1011110010011101110111101 -
1.
b1011110010011101110111101 /
b1011110010011101110111101 0
#240000000
0!
0*
0.
#250000000
1!
b1011101110110001111101000 "
b1011110100111010110000000 #
b1011110110100111001111010 $
b1011110110100111001111010 %
b1011110110100111001111010 &
b1101 '
b1011110110100111001111010 )
1*
b1011101110110001111101000 +
b1011110100111010110000000 ,
b1011110110100111001111010 -
1.
b1011110110100111001111010 /
b1011110110100111001111010 0
#260000000
0!
0*
0.
#270000000
1!
b1011110001111101010101000 "
b1011100110000110011011001 #
b1011110010101110001000011 $
b1011110010101110001000011 %
b1011110010101110001000011 &
b1110 '
b1011110010101110001000011 )
1*
b1011110001111101010101000 +
b1011100110000110011011001 ,
b1011110010101110001000011 -
1.
b1011110010101110001000011 /
b1011110010101110001000011 0
#280000000
0!
0*
0.
#290000000
1!
b1011101110010011101111001 "
b0011110001010111101001100 #
b0011101100011011100011111 $
b0011101100011011100011111 %
b0011101100011011100011111 &
b1111 '
b0011101100011011100011111 )
1*
b1011101110010011101111001 +
b0011110001010111101001100 ,
b0011101100011011100011111 -
1.
b0011101100011011100011111 /
b0011101100011011100011111 0
#300000000
0!
0*
0.
#310000000
1!
b0011110100111000111101000 "
b0011110101101101100100010 #
b0011111001010011010000101 $
b0011111001010011010000101 %
b0011111001010011010000101 &
b10000 '
b0011111001010011010000101 )
1*
b0011110100111000111101000 +
b0011110101101101100100010 ,
b0011111001010011010000101 -
1.
b0011111001010011010000101 /
b0011111001010011010000101 0
#320000000
0!
0*
0.
#330000000
1!
b1011111000110100000111011 "
b1011110100011111000001111 #
b1011111011000011101000010 $
b1011111011000011101000010 %
b1011111011000011101000010 &
b10001 '
b1011111011000011101000010 )
1*
b1011111000110100000111011 +
b1011110100011111000001111 ,
b1011111011000011101000010 -
1.
b1011111011000011101000010 /
b1011111011000011101000010 0
#340000000
0!
0*
0.
#350000000
1!
b0011110101100110110111010 "
b1011110010001001110010000 #
b0011110001000011111100100 $
b0011110001000011111100100 %
b0011110001000011111100100 &
b10010 '
b0011110001000011111100100 )
1*
b0011110101100110110111010 +
b1011110010001001110010000 ,
b0011110001000011111100100 -
1.
b0011110001000011111100100 /
b0011110001000011111100100 0
#360000000
0!
0*
0.
#370000000
1!
b0011110011001111011000110 "
b0011111010011010100000100 #
b0011111100000111001011010 $
b0011111100000111001011010 %
b0011111100000111001011010 &
b10011 '
b0011111100000111001011010 )
1*
b0011110011001111011000110 +
b0011111010011010100000100 ,
b0011111100000111001011010 -
1.
b0011111100000111001011010 /
b0011111100000111001011010 0
#380000000
0!
0*
0.
#390000000
1!
b0011101011100011001111110 "
b1011100100110101001100110 #
b0011101001001000101001011 $
b0011101001001000101001011 %
b0011101001001000101001011 &
b10100 '
b0011101001001000101001011 )
1*
b0011101011100011001111110 +
b1011100100110101001100110 ,
b0011101001001000101001011 -
1.
b0011101001001000101001011 /
b0011101001001000101001011 0
#400000000
0!
0*
0.
#410000000
1!
b0011110010010101110111110 "
b0011101111111110111100110 #
b0011110101001010101011000 $
b0011110101001010101011000 %
b0011110101001010101011000 &
b10101 '
b0011110101001010101011000 )
1*
b0011110010010101110111110 +
b0011101111111110111100110 ,
b0011110101001010101011000 -
1.
b0011110101001010101011000 /
b0011110101001010101011000 0
#420000000
0!
0*
0.
#430000000
1!
b1011101111001011011001100 "
b1011101101011110010010100 #
b1011110010010100110110000 $
b1011110010010100110110000 %
b1011110010010100110110000 &
b10110 '
b1011110010010100110110000 )
1*
b1011101111001011011001100 +
b1011101101011110010010100 ,
b1011110010010100110110000 -
1.
b1011110010010100110110000 /
b1011110010010100110110000 0
#440000000
0!
0*
0.
#450000000
1!
b0011110110110100001101111 "
b1011110001100000011100101 #
b0011110100000011111111100 $
b0011110100000011111111100 %
b0011110100000011111111100 &
b10111 '
b0011110100000011111111100 )
1*
b0011110110110100001101111 +
b1011110001100000011100101 ,
b0011110100000011111111100 -
1.
b0011110100000011111111100 /
b0011110100000011111111100 0
#460000000
0!
0*
0.
#470000000
1!
b0011101000110010010110100 "
b0011110011110111010000100 #
b0011110100100001111011000 $
b0011110100100001111011000 %
b0011110100100001111011000 &
b11000 '
b0011110100100001111011000 )
1*
b0011101000110010010110100 +
b0011110011110111010000100 ,
b0011110100100001111011000 -
1.
b0011110100100001111011000 /
b0011110100100001111011000 0
#480000000
0!
0*
0.
#490000000
1!
b1011110001111001010101110 "
b0011101111100010101010011 #
b1011101100010000000001001 $
b1011101100010000000001001 %
b1011101100010000000001001 &
b11001 '
b1011101100010000000001001 )
1*
b1011110001111001010101110 +
b0011101111100010101010011 ,
b1011101100010000000001001 -
1.
b1011101100010000000001001 /
b1011101100010000000001001 0
#500000000
0!
0*
0.
#510000000
1!
b1011101111011101111110001 "
b0011111000101000010101000 #
b0011110111011001001010011 $
b0011110111011001001010011 %
b0011110111011001001010011 &
b11010 '
b0011110111011001001010011 )
1*
b1011101111011101111110001 +
b0011111000101000010101000 ,
b0011110111011001001010011 -
1.
b0011110111011001001010011 /
b0011110111011001001010011 0
#520000000
0!
0*
0.
#530000000
1!
b0011110111010001100101000 "
b1011101010110101101010110 #
b0011110110011010110111101 $
b0011110110011010110111101 %
b0011110110011010110111101 &
b11011 '
b0011110110011010110111101 )
1*
b0011110111010001100101000 +
b1011101010110101101010110 ,
b0011110110011010110111101 -
1.
b0011110110011010110111101 /
b0011110110011010110111101 0
#540000000
0!
0*
0.
#550000000
1!
b0011100101011101010011001 "
b0011110010011011111010010 #
b0011110011000111100100101 $
b0011110011000111100100101 %
b0011110011000111100100101 &
b11100 '
b0011110011000111100100101 )
1*
b0011100101011101010011001 +
b0011110010011011111010010 ,
b0011110011000111100100101 -
1.
b0011110011000111100100101 /
b0011110011000111100100101 0
#560000000
0!
0*
0.
#570000000
1!
b1011101100100111010101001 "
b1011110101111101110011000 #
b1011110111000111101000010 $
b1011110111000111101000010 %
b1011110111000111101000010 &
b11101 '
b1011110111000111101000010 )
1*
b1011101100100111010101001 +
b1011110101111101110011000 ,
b1011110111000111101000010 -
1.
b1011110111000111101000010 /
b1011110111000111101000010 0
#580000000
0!
0*
0.
#590000000
1!
b0011110000111011000011010 "
b1011110001000100010100011 #
b1011011100101000100100000 $
b1011011100101000100100000 %
b1011011100101000100100000 &
b11110 '
b1011011100101000100100000 )
1*
b0011110000111011000011010 +
b1011110001000100010100011 ,
b1011011100101000100100000 -
1.
b1011011100101000100100000 /
b1011011100101000100100000 0
#600000000
0!
0*
0.
#610000000
1!
b1011100110111011101011111 "
b0011110101111100000010001 #
b0011110101100000010011011 $
b0011110101100000010011011 %
b0011110101100000010011011 &
b11111 '
b0011110101100000010011011 )
1*
b1011100110111011101011111 +
b0011110101111100000010001 ,
b0011110101100000010011011 -
1.
b0011110101100000010011011 /
b0011110101100000010011011 0
#620000000
0!
0*
0.
#630000000
1!
b0011101111100010011101111 "
b0011110110010011011100110 #
b0011111000000110000010000 $
b0011111000000110000010000 %
b0011111000000110000010000 &
b100000 '
b0011111000000110000010000 )
1*
b0011101111100010011101111 +
b0011110110010011011100110 ,
b0011111000000110000010000 -
1.
b0011111000000110000010000 /
b0011111000000110000010000 0
#640000000
0!
0*
0.
#650000000
1!
b1011101010001110011001100 "
b1011110010011001011111010 #
b1011110011111101000101101 $
b1011110011111101000101101 %
b1011110011111101000101101 &
b100001 '
b1011110011111101000101101 )
1*
b1011101010001110011001100 +
b1011110010011001011111010 ,
b1011110011111101000101101 -
1.
b1011110011111101000101101 /
b1011110011111101000101101 0
#660000000
0!
0*
0.
#670000000
1!
b0011110001001101101101011 "
b0011111000011011101000110 #
b0011111001101111000100000 $
b0011111001101111000100000 %
b0011111001101111000100000 &
b100010 '
b0011111001101111000100000 )
1*
b0011110001001101101101011 +
b0011111000011011101000110 ,
b0011111001101111000100000 -
1.
b0011111001101111000100000 /
b0011111001101111000100000 0
#680000000
0!
0*
0.
#690000000
1!
b0011110110110111101000001 "
b1011100011001101000000101 #
b0011110110101001001110000 $
b0011110110101001001110000 %
b0011110110101001001110000 &
b100011 '
b0011110110101001001110000 )
1*
b0011110110110111101000001 +
b1011100011001101000000101 ,
b0011110110101001001110000 -
1.
b0011110110101001001110000 /
b0011110110101001001110000 0
#700000000
0!
0*
0.
#710000000
1!
b1011110000001011010000100 "
b0011110011110011001011001 #
b0011101111001111110101010 $
b0011101111001111110101010 %
b0011101111001111110101010 &
b100100 '
b0011101111001111110101010 )
1*
b1011110000001011010000100 +
b0011110011110011001011001 ,
b0011101111001111110101010 -
1.
b0011101111001111110101010 /
b0011101111001111110101010 0
#720000000
0!
0*
0.
#730000000
1!
b0011110010101101110110110 "
b1011111001101001100010000 #
b1011110111111100001000101 $
b1011110111111100001000101 %
b1011110111111100001000101 &
b100101 '
b1011110111111100001000101 )
1*
b0011110010101101110110110 +
b1011111001101001100010000 ,
b1011110111111100001000101 -
1.
b1011110111111100001000101 /
b1011110111111100001000101 0
#740000000
0!
0*
0.
#750000000
1!
b1011110000001100111100010 "
b0011100111101111000000111 #
b1011101110011110001000010 $
b1011101110011110001000010 %
b1011101110011110001000010 &
b100110 '
b1011101110011110001000010 )
1*
b1011110000001100111100010 +
b0011100111101111000000111 ,
b1011101110011110001000010 -
1.
b1011101110011110001000010 /
b1011101110011110001000010 0
#760000000
0!
0*
0.
#770000000
1!
b1011101111000000100000100 "
b1011110101110000101001111 #
b1011110111100000110010000 $
b1011110111100000110010000 %
b1011110111100000110010000 &
b100111 '
b1011110111100000110010000 )
1*
b1011101111000000100000100 +
b1011110101110000101001111 ,
b1011110111100000110010000 -
1.
b1011110111100000110010000 /
b1011110111100000110010000 0
#780000000
0!
0*
0.
#790000000
1!
b1011100100111101000100101 "
b0011110010100011100001001 #
b0011110001111011111000100 $
b0011110001111011111000100 %
b0011110001111011111000100 &
b101000 '
b0011110001111011111000100 )
1*
b1011100100111101000100101 +
b0011110010100011100001001 ,
b0011110001111011111000100 -
1.
b0011110001111011111000100 /
b0011110001111011111000100 0
#800000000
0!
0*
0.
#810000000
1!
b1011101101011110111000011 "
b0011110010100111110110010 #
b0011101111110000110100001 $
b0011101111110000110100001 %
b0011101111110000110100001 &
b101001 '
b0011101111110000110100001 )
1*
b1011101101011110111000011 +
b0011110010100111110110010 ,
b0011101111110000110100001 -
1.
b0011101111110000110100001 /
b0011101111110000110100001 0
#820000000
0!
0*
0.
#830000000
1!
b1011110001111001100010110 "
b0011110001111000101000111 #
b1011001111001111000000000 $
b1011001111001111000000000 %
b1011001111001111000000000 &
b101010 '
b1011001111001111000000000 )
1*
b1011110001111001100010110 +
b0011110001111000101000111 ,
b1011001111001111000000000 -
1.
b1011001111001111000000000 /
b1011001111001111000000000 0
#840000000
0!
0*
0.
#850000000
1!
b1011110111001001000101000 "
b1011101101101010001101010 #
b1011111000010001110100001 $
b1011111000010001110100001 %
b1011111000010001110100001 &
b101011 '
b1011111000010001110100001 )
1*
b1011110111001001000101000 +
b1011101101101010001101010 ,
b1011111000010001110100001 -
1.
b1011111000010001110100001 /
b1011111000010001110100001 0
#860000000
0!
0*
0.
#870000000
1!
b1011110101011001010101010 "
b0011111000111010111111000 #
b0011110100011100101000110 $
b0011110100011100101000110 %
b0011110100011100101000110 &
b101100 '
b0011110100011100101000110 )
1*
b1011110101011001010101010 +
b0011111000111010111111000 ,
b0011110100011100101000110 -
1.
b0011110100011100101000110 /
b0011110100011100101000110 0
#880000000
0!
0*
0.
#890000000
1!
b0011110001100111101100000 "
b0011110110101110110100100 #
b0011111000110001010101010 $
b0011111000110001010101010 %
b0011111000110001010101010 &
b101101 '
b0011111000110001010101010 )
1*
b0011110001100111101100000 +
b0011110110101110110100100 ,
b0011111000110001010101010 -
1.
b0011111000110001010101010 /
b0011111000110001010101010 0
#900000000
0!
0*
0.
#910000000
1!
b0011110111100000000100001 "
b1011110011101111000010000 #
b0011110011010001000110010 $
b0011110011010001000110010 %
b0011110011010001000110010 &
b101110 '
b0011110011010001000110010 )
1*
b0011110111100000000100001 +
b1011110011101111000010000 ,
b0011110011010001000110010 -
1.
b0011110011010001000110010 /
b0011110011010001000110010 0
#920000000
0!
0*
0.
#930000000
1!
b1011110110010001100000110 "
b0011110101100001110100110 #
b1011101001111101100000000 $
b1011101001111101100000000 %
b1011101001111101100000000 &
b101111 '
b1011101001111101100000000 )
1*
b1011110110010001100000110 +
b0011110101100001110100110 ,
b1011101001111101100000000 -
1.
b1011101001111101100000000 /
b1011101001111101100000000 0
#940000000
0!
0*
0.
#950000000
1!
b1011110000111001100110111 "
b0011101100010001001110111 #
b1011101101100001111110111 $
b1011101101100001111110111 %
b1011101101100001111110111 &
b110000 '
b1011101101100001111110111 )
1*
b1011110000111001100110111 +
b0011101100010001001110111 ,
b1011101101100001111110111 -
1.
b1011101101100001111110111 /
b1011101101100001111110111 0
#960000000
0!
0*
0.
#970000000
1!
b0011110011111100101001110 "
b0011101101011101110110001 #
b0011110101010101110010011 $
b0011110101010101110010011 %
b0011110101010101110010011 &
b110001 '
b0011110101010101110010011 )
1*
b0011110011111100101001110 +
b0011101101011101110110001 ,
b0011110101010101110010011 -
1.
b0011110101010101110010011 /
b0011110101010101110010011 0
#980000000
0!
0*
0.
#990000000
1!
b1011100111101100010100000 "
b1011110001001100010101011 #
b1011110010001001110111111 $
b1011110010001001110111111 %
b1011110010001001110111111 &
b110010 '
b1011110010001001110111111 )
1*
b1011100111101100010100000 +
b1011110001001100010101011 ,
b1011110010001001110111111 -
1.
b1011110010001001110111111 /
b1011110010001001110111111 0
#1000000000
0!
0*
0.
#1010000000
1!
b0011110110000011001100000 "
b0011110101010001011001001 #
b0011111001101010010010100 $
b0011111001101010010010100 %
b0011111001101010010010100 &
b110011 '
b0011111001101010010010100 )
1*
b0011110110000011001100000 +
b0011110101010001011001001 ,
b0011111001101010010010100 -
1.
b0011111001101010010010100 /
b0011111001101010010010100 0
#1020000000
0!
0*
0.
#1030000000
1!
b1011110011101000100101001 "
b1011110010111111100011010 #
b1011110111010100000100001 $
b1011110111010100000100001 %
b1011110111010100000100001 &
b110100 '
b1011110111010100000100001 )
1*
b1011110011101000100101001 +
b1011110010111111100011010 ,
b1011110111010100000100001 -
1.
b1011110111010100000100001 /
b1011110111010100000100001 0
#1040000000
0!
0*
0.
#1050000000
1!
b1011110000001001010101101 "
b0011110101101011100000011 #
b0011110011001101101011001 $
b0011110011001101101011001 %
b0011110011001101101011001 &
b110101 '
b0011110011001101101011001 )
1*
b1011110000001001010101101 +
b0011110101101011100000011 ,
b0011110011001101101011001 -
1.
b0011110011001101101011001 /
b0011110011001101101011001 0
#1060000000
0!
0*
0.
#1070000000
1!
b1011111000011110101111101 "
b0011110111000001101100111 #
b1011101111101111001001100 $
b1011101111101111001001100 %
b1011101111101111001001100 &
b110110 '
b1011101111101111001001100 )
1*
b1011111000011110101111101 +
b0011110111000001101100111 ,
b1011101111101111001001100 -
1.
b1011101111101111001001100 /
b1011101111101111001001100 0
#1080000000
0!
0*
0.
#1090000000
1!
b1011110101000110001110001 "
b0011100110110101001100101 #
b1011110100101010111001010 $
b1011110100101010111001010 %
b1011110100101010111001010 &
b110111 '
b1011110100101010111001010 )
1*
b1011110101000110001110001 +
b0011100110110101001100101 ,
b1011110100101010111001010 -
1.
b1011110100101010111001010 /
b1011110100101010111001010 0
#1100000000
0!
0*
0.
#1110000000
1!
b0011110110000000110111110 "
b0011110001011001001000100 #
b0011111000010110101110000 $
b0011111000010110101110000 %
b0011111000010110101110000 &
b111000 '
b0011111000010110101110000 )
1*
b0011110110000000110111110 +
b0011110001011001001000100 ,
b0011111000010110101110000 -
1.
b0011111000010110101110000 /
b0011111000010110101110000 0
#1120000000
0!
0*
0.
#1130000000
1!
b0011101110000110100001101 "
b0011110101001001011110100 #
b0011110110101011000110111 $
b0011110110101011000110111 %
b0011110110101011000110111 &
b111001 '
b0011110110101011000110111 )
1*
b0011101110000110100001101 +
b0011110101001001011110100 ,
b0011110110101011000110111 -
1.
b0011110110101011000110111 /
b0011110110101011000110111 0
#1140000000
0!
0*
0.
#1150000000
1!
b1011110000110011101100110 "
b1011101101000011111111001 #
b1011110011010101101100010 $
b1011110011010101101100010 %
b1011110011010101101100010 &
b111010 '
b1011110011010101101100010 )
1*
b1011110000110011101100110 +
b1011101101000011111111001 ,
b1011110011010101101100010 -
1.
b1011110011010101101100010 /
b1011110011010101101100010 0
#1160000000
0!
0*
0.
#1170000000
1!
b0011101110001100010101001 "
b0011110001011001011110101 #
b0011110100001111110100100 $
b0011110100001111110100100 %
b0011110100001111110100100 &
b111011 '
b0011110100001111110100100 )
1*
b0011101110001100010101001 +
b0011110001011001011110101 ,
b0011110100001111110100100 -
1.
b0011110100001111110100100 /
b0011110100001111110100100 0
#1180000000
0!
0*
0.
#1190000000
1!
b1011110010010111110100101 "
b1011110101001000111101000 #
b1011111000001010011011101 $
b1011111000001010011011101 %
b1011111000001010011011101 &
b111100 '
b1011111000001010011011101 )
1*
b1011110010010111110100101 +
b1011110101001000111101000 ,
b1011111000001010011011101 -
1.
b1011111000001010011011101 /
b1011111000001010011011101 0
#1200000000
0!
0*
0.
#1210000000
1!
b0011110001011001101100111 "
b0011101100101010100111010 #
b0011110011101111000000100 $
b0011110011101111000000100 %
b0011110011101111000000100 &
b111101 '
b0011110011101111000000100 )
1*
b0011110001011001101100111 +
b0011101100101010100111010 ,
b0011110011101111000000100 -
1.
b0011110011101111000000100 /
b0011110011101111000000100 0
#1220000000
0!
0*
0.
#1230000000
1!
b1011111000100101000110101 "
b1011110010000011110011010 #
b1011111010000110000011011 $
b1011111010000110000011011 %
b1011111010000110000011011 &
b111110 '
b1011111010000110000011011 )
1*
b1011111000100101000110101 +
b1011110010000011110011010 ,
b1011111010000110000011011 -
1.
b1011111010000110000011011 /
b1011111010000110000011011 0
#1240000000
0!
0*
0.
#1250000000
1!
b0011110101100010111010010 "
b1011111000101101110011110 #
b1011110011110001011010100 $
b1011110011110001011010100 %
b1011110011110001011010100 &
b111111 '
b1011110011110001011010100 )
1*
b0011110101100010111010010 +
b1011111000101101110011110 ,
b1011110011110001011010100 -
1.
b1011110011110001011010100 /
b1011110011110001011010100 0
#1260000000
0!
0*
0.
#1270000000
1!
b0011101001100000110110111 "
b0011111000110110011110110 #
b0011111001001100100010001 $
b0011111001001100100010001 %
b0011111001001100100010001 &
b1000000 '
b0011111001001100100010001 )
1*
b0011101001100000110110111 +
b0011111000110110011110110 ,
b0011111001001100100010001 -
1.
b0011111001001100100010001 /
b0011111001001100100010001 0
#1280000000
0!
0*
0.
#1290000000
1!
b0011110001111010011101111 "
b0011110110001001100110110 #
b0011111000100011011010110 $
b0011111000100011011010110 %
b0011111000100011011010110 &
b1000001 '
b0011111000100011011010110 )
1*
b0011110001111010011101111 +
b0011110110001001100110110 ,
b0011111000100011011010110 -
1.
b0011111000100011011010110 /
b0011111000100011011010110 0
#1300000000
0!
0*
0.
#1310000000
1!
b1011110010100101111000001 "
b1011110110100010010111000 #
b1011111000111010101001100 $
b1011111000111010101001100 %
b1011111000111010101001100 &
b1000010 '
b1011111000111010101001100 )
1*
b1011110010100101111000001 +
b1011110110100010010111000 ,
b1011111000111010101001100 -
1.
b1011111000111010101001100 /
b1011111000111010101001100 0
#1320000000
0!
0*
0.
#1330000000
1!
b1011110110010011010111010 "
b0011110101111101101110011 #
b1011100101011010001110000 $
b1011100101011010001110000 %
b1011100101011010001110000 &
b1000011 '
b1011100101011010001110000 )
1*
b1011110110010011010111010 +
b0011110101111101101110011 ,
b1011100101011010001110000 -
1.
b1011100101011010001110000 /
b1011100101011010001110000 0
#1340000000
0!
0*
0.
#1350000000
1!
b1011110110011110110011101 "
b0011100101100011101010111 #
b1011110110001000100100111 $
b1011110110001000100100111 %
b1011110110001000100100111 &
b1000100 '
b1011110110001000100100111 )
1*
b1011110110011110110011101 +
b0011100101100011101010111 ,
b1011110110001000100100111 -
1.
b1011110110001000100100111 /
b1011110110001000100100111 0
#1360000000
0!
0*
0.
#1370000000
1!
b1011111000111001010101110 "
b1011101100110001110000111 #
b1011111001011111100011110 $
b1011111001011111100011110 %
b1011111001011111100011110 &
b1000101 '
b1011111001011111100011110 )
1*
b1011111000111001010101110 +
b1011101100110001110000111 ,
b1011111001011111100011110 -
1.
b1011111001011111100011110 /
b1011111001011111100011110 0
#1380000000
0!
0*
0.
#1390000000
1!
b0011101001100000101011000 "
b1011110100010000111011010 #
b1011110011001001101011110 $
b1011110011001001101011110 %
b1011110011001001101011110 &
b1000110 '
b1011110011001001101011110 )
1*
b0011101001100000101011000 +
b1011110100010000111011010 ,
b1011110011001001101011110 -
1.
b1011110011001001101011110 /
b1011110011001001101011110 0
#1400000000
0!
0*
0.
#1410000000
1!
b1011110111100110110010011 "
b0011111000000100111101010 #
b0011101000011001000001000 $
b0011101000011001000001000 %
b0011101000011001000001000 &
b1000111 '
b0011101000011001000001000 )
1*
b1011110111100110110010011 +
b0011111000000100111101010 ,
b0011101000011001000001000 -
1.
b0011101000011001000001000 /
b0011101000011001000001000 0
#1420000000
0!
0*
0.
#1430000000
1!
b0011110101111111010001011 "
b0011101101011111111100011 #
b0011110111010111010000011 $
b0011110111010111010000011 %
b0011110111010111010000011 &
b1001000 '
b0011110111010111010000011 )
1*
b0011110101111111010001011 +
b0011101101011111111100011 ,
b0011110111010111010000011 -
1.
b0011110111010111010000011 /
b0011110111010111010000011 0
#1440000000
0!
0*
0.
#1450000000
1!
b1011110001110111001110001 "
b0011110100000001101101010 #
b0011101100011000011000110 $
b0011101100011000011000110 %
b0011101100011000011000110 &
b1001001 '
b0011101100011000011000110 )
1*
b1011110001110111001110001 +
b0011110100000001101101010 ,
b0011101100011000011000110 -
1.
b0011101100011000011000110 /
b0011101100011000011000110 0
#1460000000
0!
0*
0.
#1470000000
1!
b0011110110010111010001111 "
b1011101110001111110011110 #
b0011110100110011010100111 $
b0011110100110011010100111 %
b0011110100110011010100111 &
b1001010 '
b0011110100110011010100111 )
1*
b0011110110010111010001111 +
b1011101110001111110011110 ,
b0011110100110011010100111 -
1.
b0011110100110011010100111 /
b0011110100110011010100111 0
#1480000000
0!
0*
0.
#1490000000
1!
b1011100100011010101101111 "
b0011101010010100010001100 #
b0011101000000110111010100 $
b0011101000000110111010100 %
b0011101000000110111010100 &
b1001011 '
b0011101000000110111010100 )
1*
b1011100100011010101101111 +
b0011101010010100010001100 ,
b0011101000000110111010100 -
1.
b0011101000000110111010100 /
b0011101000000110111010100 0
#1500000000
0!
0*
0.
#1510000000
1!
b1011110101001100010110110 "
b1011110000010010010110001 #
b1011110111010101100001110 $
b1011110111010101100001110 %
b1011110111010101100001110 &
b1001100 '
b1011110111010101100001110 )
1*
b1011110101001100010110110 +
b1011110000010010010110001 ,
b1011110111010101100001110 -
1.
b1011110111010101100001110 /
b1011110111010101100001110 0
#1520000000
0!
0*
0.
#1530000000
1!
b0011101000011001111011101 "
b1011110011110001010111111 #
b1011110010101010111000111 $
b1011110010101010111000111 %
b1011110010101010111000111 &
b1001101 '
b1011110010101010111000111 )
1*
b0011101000011001111011101 +
b1011110011110001010111111 ,
b1011110010101010111000111 -
1.
b1011110010101010111000111 /
b1011110010101010111000111 0
#1540000000
0!
0*
0.
#1550000000
1!
b0011111000000000001111010 "
b1011100110000100110101110 #
b0011110111101000001011001 $
b0011110111101000001011001 %
b0011110111101000001011001 &
b1001110 '
b0011110111101000001011001 )
1*
b0011111000000000001111010 +
b1011100110000100110101110 ,
b0011110111101000001011001 -
1.
b0011110111101000001011001 /
b0011110111101000001011001 0
#1560000000
0!
0*
0.
#1570000000
1!
b1011110000000000100000110 "
b0011110011111110110111100 #
b0011101111111100101101100 $
b0011101111111100101101100 %
b0011101111111100101101100 &
b1001111 '
b0011101111111100101101100 )
1*
b1011110000000000100000110 +
b0011110011111110110111100 ,
b0011101111111100101101100 -
1.
b0011101111111100101101100 /
b0011101111111100101101100 0
#1580000000
0!
0*
0.
