GHDL/sumador_pf/sum_pf.vcd
$date
  Thu Oct 25 18:25:45 2018
$end
$version
  GHDL v0
$end
$timescale
  1 fs
$end
$scope module standard $end
$upscope $end
$scope module std_logic_1164 $end
$upscope $end
$scope module numeric_std $end
$upscope $end
$scope module textio $end
$upscope $end
$scope module pf_testbench $end
$var reg 1 ! clk $end
$var reg 30 " a_file[29:0] $end
$var reg 30 # b_file[29:0] $end
$var reg 30 $ z_file[29:0] $end
$var reg 30 % z_del[29:0] $end
$var reg 30 & z_dut[29:0] $end
$var integer 32 ' ciclos $end
$var integer 32 ( errores $end
$var reg 30 ) z_del_aux[29:0] $end
$scope module dut $end
$var reg 1 * clk $end
$var reg 30 + a[29:0] $end
$var reg 30 , b[29:0] $end
$var reg 30 - s[29:0] $end
$upscope $end
$scope module del $end
$var reg 1 . clk $end
$var reg 30 / a[29:0] $end
$var reg 30 0 b[29:0] $end
$comment aux is not handled $end
$scope module gen_retardo(0) $end
$scope module sin_retardo $end
$upscope $end
$upscope $end
$upscope $end
$upscope $end
$enddefinitions $end
#0
0!
b000000000000000000000000000000 "
b000000000000000000000000000000 #
b000000000000000000000000000000 $
b000000000000000000000000000000 %
b000000000000000000000000000000 &
b0 '
b0 (
b000000000000000000000000000000 )
0*
b000000000000000000000000000000 +
b000000000000000000000000000000 ,
b000000000000000000000000000000 -
0.
b000000000000000000000000000000 /
b000000000000000000000000000000 0
#10000000
1!
b001111100110011111010111101001 "
b001111110010101001001110101100 #
b001111110110010001000100100110 $
b001111110110010001000100100110 %
b001111110010101001001110101100 &
b1 '
b001111110110010001000100100110 )
1*
b001111100110011111010111101001 +
b001111110010101001001110101100 ,
b001111110010101001001110101100 -
1.
b001111110110010001000100100110 /
b001111110110010001000100100110 0
#20000000
0!
0*
0.
#30000000
1!
b001111110000000101101010110111 "
b001111100101011100111100011111 #
b001111110011011100111001111110 $
b001111110011011100111001111110 %
b001111110011011100111001111110 &
b10 '
b1 (
b001111110011011100111001111110 )
1*
b001111110000000101101010110111 +
b001111100101011100111100011111 ,
b001111110011011100111001111110 -
1.
b001111110011011100111001111110 /
b001111110011011100111001111110 0
#40000000
0!
0*
0.
#50000000
1!
b101111110010011100100110010100 "
b101111101110101011001001000010 #
b101111111000111001000101011010 $
b101111111000111001000101011010 %
b101111111000111001000101011010 &
b11 '
b101111111000111001000101011010 )
1*
b101111110010011100100110010100 +
b101111101110101011001001000010 ,
b101111111000111001000101011010 -
1.
b101111111000111001000101011010 /
b101111111000111001000101011010 0
#60000000
0!
0*
0.
#70000000
1!
b101111100111000011001100111111 "
b001111011101010110010111111010 #
b101111100000011000000001000010 $
b101111100000011000000001000010 %
b101100111000000000000000000000 &
b100 '
b101111100000011000000001000010 )
1*
b101111100111000011001100111111 +
b001111011101010110010111111010 ,
b101100111000000000000000000000 -
1.
b101111100000011000000001000010 /
b101111100000011000000001000010 0
#80000000
0!
0*
0.
#90000000
1!
b001111010110010000110100110100 "
b101111110101101010111010011011 #
b101111110100110001110111000111 $
b101111110100110001110111000111 %
b101111110100110001110111000111 &
b101 '
b10 (
b101111110100110001110111000111 )
1*
b001111010110010000110100110100 +
b101111110101101010111010011011 ,
b101111110100110001110111000111 -
1.
b101111110100110001110111000111 /
b101111110100110001110111000111 0
#100000000
0!
0*
0.
#110000000
1!
b001111100010101011101100011000 "
b001111110000010001011010111110 #
b001111110010111100010110000100 $
b001111110010111100010110000100 %
b001111110000010001011010111110 &
b110 '
b001111110010111100010110000100 )
1*
b001111100010101011101100011000 +
b001111110000010001011010111110 ,
b001111110000010001011010111110 -
1.
b001111110010111100010110000100 /
b001111110010111100010110000100 0
#120000000
0!
0*
0.
#130000000
1!
b101111100011001100011110110100 "
b001111100010110110101011110111 #
b101110111010111001011110100000 $
b101110111010111001011110100000 %
b101100111000000000000000000000 &
b111 '
b11 (
b101110111010111001011110100000 )
1*
b101111100011001100011110110100 +
b001111100010110110101011110111 ,
b101100111000000000000000000000 -
1.
b101110111010111001011110100000 /
b101110111010111001011110100000 0
#140000000
0!
0*
0.
#150000000
1!
b001111011100000100101101001001 "
b101111100011000100110011001111 #
b101111011010000100111001010101 $
b101111011010000100111001010101 %
b101111100101000010011100101010 &
b1000 '
b100 (
b101111011010000100111001010101 )
1*
b001111011100000100101101001001 +
b101111100011000100110011001111 ,
b101111100101000010011100101010 -
1.
b101111011010000100111001010101 /
b101111011010000100111001010101 0
#160000000
0!
0*
0.
#170000000
1!
b101111101100011010011001001001 "
b101111101111000110101010010100 #
b101111110101110000100001101110 $
b101111110101110000100001101110 %
b101111110101110000100001101110 &
b1001 '
b101 (
b101111110101110000100001101110 )
1*
b101111101100011010011001001001 +
b101111101111000110101010010100 ,
b101111110101110000100001101110 -
1.
b101111110101110000100001101110 /
b101111110101110000100001101110 0
#180000000
0!
0*
0.
#190000000
1!
b101111010111010110101110011110 "
b001111100001001101101010011001 #
b001111011010101111111101100011 $
b001111011010101111111101100011 %
b001111100101010111111110110001 &
b1010 '
b001111011010101111111101100011 )
1*
b101111010111010110101110011110 +
b001111100001001101101010011001 ,
b001111100101010111111110110001 -
1.
b001111011010101111111101100011 /
b001111011010101111111101100011 0
#200000000
0!
0*
0.
#210000000
1!
b101111011100001101100110011001 "
b001111100010000010111111011110 #
b001111010111110000110001000110 $
b001111010111110000110001000110 %
b001111100011111100001100010001 &
b1011 '
b110 (
b001111010111110000110001000110 )
1*
b101111011100001101100110011001 +
b001111100010000010111111011110 ,
b001111100011111100001100010001 -
1.
b001111010111110000110001000110 /
b001111010111110000110001000110 0
#220000000
0!
0*
0.
#230000000
1!
b001111101001101011110000011111 "
b101111101100011111111111110100 #
b101111011011010000111101010100 $
b101111011011010000111101010100 %
b001101000000000000000000000000 &
b1100 '
b111 (
b101111011011010000111101010100 )
1*
b001111101001101011110000011111 +
b101111101100011111111111110100 ,
b001101000000000000000000000000 -
1.
b101111011011010000111101010100 /
b101111011011010000111101010100 0
#240000000
0!
0*
0.
#250000000
1!
b101111100010110010110110100011 "
b101111000101010000001010110100 #
b101111100011100111110111001110 $
b101111100011100111110111001110 %
b101111100011100111110111001110 &
b1101 '
b1000 (
b101111100011100111110111001110 )
1*
b101111100010110010110110100011 +
b101111000101010000001010110100 ,
b101111100011100111110111001110 -
1.
b101111100011100111110111001110 /
b101111100011100111110111001110 0
#260000000
0!
0*
0.
#270000000
1!
b101111101001000111100100100101 "
b101111100111001001011101110111 #
b101111110000010110001001110000 $
b101111110000010110001001110000 %
b101111101000101100010011100000 &
b1110 '
b101111110000010110001001110000 )
1*
b101111101001000111100100100101 +
b101111100111001001011101110111 ,
b101111101000101100010011100000 -
1.
b101111110000010110001001110000 /
b101111110000010110001001110000 0
#280000000
0!
0*
0.
#290000000
1!
b101111101001000010000011000001 "
b101111101100011101000101011100 #
b101111110010101111100100001110 $
b101111110010101111100100001110 %
b101111110010101111100100001110 &
b1111 '
b1001 (
b101111110010101111100100001110 )
1*
b101111101001000010000011000001 +
b101111101100011101000101011100 ,
b101111110010101111100100001110 -
1.
b101111110010101111100100001110 /
b101111110010101111100100001110 0
#300000000
0!
0*
0.
#310000000
1!
b001111011011010010000001101001 "
b101111011100010101110111001100 #
b101111000000011110101100011000 $
b101111000000011110101100011000 %
b001100110000000000000000000000 &
b10000 '
b101111000000011110101100011000 )
1*
b001111011011010010000001101001 +
b101111011100010101110111001100 ,
b001100110000000000000000000000 -
1.
b101111000000011110101100011000 /
b101111000000011110101100011000 0
#320000000
0!
0*
0.
#330000000
1!
b101111100111000110000001010011 "
b101111101010111010000000000111 #
b101111110001001110100000011000 $
b101111110001001110100000011000 %
b101111110101011101000000000011 &
b10001 '
b1010 (
b101111110001001110100000011000 )
1*
b101111100111000110000001010011 +
b101111101010111010000000000111 ,
b101111110101011101000000000011 -
1.
b101111110001001110100000011000 /
b101111110001001110100000011000 0
#340000000
0!
0*
0.
#350000000
1!
b001111110000000111001110101010 "
b101111100111011111000100111000 #
b001111101000011110111010111000 $
b001111101000011110111010111000 %
b001101001000000000000000000000 &
b10010 '
b1011 (
b001111101000011110111010111000 )
1*
b001111110000000111001110101010 +
b101111100111011111000100111000 ,
b001101001000000000000000000000 -
1.
b001111101000011110111010111000 /
b001111101000011110111010111000 0
#360000000
0!
0*
0.
#370000000
1!
b001111100011100111110101010110 "
b001111101101010110100110110000 #
b001111110001100101010000101101 $
b001111110001100101010000101101 %
b001111101101010110100110110000 &
b10011 '
b1100 (
b001111110001100101010000101101 )
1*
b001111100011100111110101010110 +
b001111101101010110100110110000 ,
b001111101101010110100110110000 -
1.
b001111110001100101010000101101 /
b001111110001100101010000101101 0
#380000000
0!
0*
0.
#390000000
1!
b001111011100111110101010110000 "
b001111100010010011100010100011 #
b001111101000011001011011111101 $
b001111101000011001011011111101 %
b001111101101001001110001010001 &
b10100 '
b1101 (
b001111101000011001011011111101 )
1*
b001111011100111110101010110000 +
b001111100010010011100010100011 ,
b001111101101001001110001010001 -
1.
b001111101000011001011011111101 /
b001111101000011001011011111101 0
#400000000
0!
0*
0.
#410000000
1!
b101111010100010000010100111010 "
b101111100011001111000001100011 #
b101111100110010011000110110001 $
b101111100110010011000110110001 %
b101111101101100111100000110001 &
b10101 '
b1110 (
b101111100110010011000110110001 )
1*
b101111010100010000010100111010 +
b101111100011001111000001100011 ,
b101111101101100111100000110001 -
1.
b101111100110010011000110110001 /
b101111100110010011000110110001 0
#420000000
0!
0*
0.
#430000000
1!
b001111011100110001111111100111 "
b001111110001111001111010011011 #
b001111110011100000001010010111 $
b001111110011100000001010010111 %
b001111111100111100111101001101 &
b10110 '
b1111 (
b001111110011100000001010010111 )
1*
b001111011100110001111111100111 +
b001111110001111001111010011011 ,
b001111111100111100111101001101 -
1.
b001111110011100000001010010111 /
b001111110011100000001010010111 0
#440000000
0!
0*
0.
#450000000
1!
b001111101101100110001110100110 "
b001111100111011000111111011101 #
b001111110010101001010111001010 $
b001111110010101001010111001010 %
b001111101101010010101110010100 &
b10111 '
b10000 (
b001111110010101001010111001010 )
1*
b001111101101100110001110100110 +
b001111100111011000111111011101 ,
b001111101101010010101110010100 -
1.
b001111110010101001010111001010 /
b001111110010101001010111001010 0
#460000000
0!
0*
0.
#470000000
1!
b101111110011010100101001100000 "
b001111110100010111010111110110 #
b001111011000010101110010110000 $
b001111011000010101110010110000 %
b101101001000000000000000000000 &
b11000 '
b10001 (
b001111011000010101110010110000 )
1*
b101111110011010100101001100000 +
b001111110100010111010111110110 ,
b101101001000000000000000000000 -
1.
b001111011000010101110010110000 /
b001111011000010101110010110000 0
#480000000
0!
0*
0.
#490000000
1!
b001111101101000101010101001011 "
b001111100101010110000011100101 #
b001111110001111000001011011110 $
b001111110001111000001011011110 %
b001111110001111000001011011110 &
b11001 '
b10010 (
b001111110001111000001011011110 )
1*
b001111101101000101010101001011 +
b001111100101010110000011100101 ,
b001111110001111000001011011110 -
1.
b001111110001111000001011011110 /
b001111110001111000001011011110 0
#500000000
0!
0*
0.
#510000000
1!
b101111011111010100011010011000 "
b001111010001010010101011100010 #
b101111011010101011000100100111 $
b101111011010101011000100100111 %
b101100110000000000000000000000 &
b11010 '
b101111011010101011000100100111 )
1*
b101111011111010100011010011000 +
b001111010001010010101011100010 ,
b101100110000000000000000000000 -
1.
b101111011010101011000100100111 /
b101111011010101011000100100111 0
#520000000
0!
0*
0.
#530000000
1!
b001110100101000100000101000000 "
b101111011100001001010111100000 #
b101111011100000010110101011101 $
b101111011100000010110101011101 %
b101111011100000010110101011101 &
b11011 '
b10011 (
b101111011100000010110101011101 )
1*
b001110100101000100000101000000 +
b101111011100001001010111100000 ,
b101111011100000010110101011101 -
1.
b101111011100000010110101011101 /
b101111011100000010110101011101 0
#540000000
0!
0*
0.
#550000000
1!
b001111101000111100111011001000 "
b001111100011110100011011100111 #
b001111101110110111001000111011 $
b001111101110110111001000111011 %
b001111110111011011100100011101 &
b11100 '
b001111101110110111001000111011 )
1*
b001111101000111100111011001000 +
b001111100011110100011011100111 ,
b001111110111011011100100011101 -
1.
b001111101110110111001000111011 /
b001111101110110111001000111011 0
#560000000
0!
0*
0.
#570000000
1!
b001111100011110010011011100001 "
b001111110111100011010101001110 #
b001111111001001111111110000011 $
b001111111001001111111110000011 %
b001111110111100011010101001110 &
b11101 '
b10100 (
b001111111001001111111110000011 )
1*
b001111100011110010011011100001 +
b001111110111100011010101001110 ,
b001111110111100011010101001110 -
1.
b001111111001001111111110000011 /
b001111111001001111111110000011 0
#580000000
0!
0*
0.
#590000000
1!
b101111110000001010101110000101 "
b101111101111101100100000100001 #
b101111111000000000011111001010 $
b101111111000000000011111001010 %
b101111111000000000011111001010 &
b11110 '
b10101 (
b101111111000000000011111001010 )
1*
b101111110000001010101110000101 +
b101111101111101100100000100001 ,
b101111111000000000011111001010 -
1.
b101111111000000000011111001010 /
b101111111000000000011111001010 0
#600000000
0!
0*
0.
#610000000
1!
b101111101111001101110100110110 "
b001111100000001111101001101111 #
b101111101011000101111111111110 $
b101111101011000101111111111110 %
b101111101011000101111111111110 &
b11111 '
b101111101011000101111111111110 )
1*
b101111101111001101110100110110 +
b001111100000001111101001101111 ,
b101111101011000101111111111110 -
1.
b101111101011000101111111111110 /
b101111101011000101111111111110 0
#620000000
0!
0*
0.
#630000000
1!
b001111100011100110111100101011 "
b101111101110011100111000100100 #
b101111101000101001011010001110 $
b101111101000101001011010001110 %
b101111101000101001011010001110 &
b100000 '
b101111101000101001011010001110 )
1*
b001111100011100110111100101011 +
b101111101110011100111000100100 ,
b101111101000101001011010001110 -
1.
b101111101000101001011010001110 /
b101111101000101001011010001110 0
#640000000
0!
0*
0.
#650000000
1!
b101111101001001101101100011111 "
b001111101101101100011010000000 #
b001111100000111101011011000010 $
b001111100000111101011011000010 %
b101101000000000000000000000000 &
b100001 '
b001111100000111101011011000010 )
1*
b101111101001001101101100011111 +
b001111101101101100011010000000 ,
b101101000000000000000000000000 -
1.
b001111100000111101011011000010 /
b001111100000111101011011000010 0
#660000000
0!
0*
0.
#670000000
1!
b101111110000010000001111000110 "
b101111101001001001011100010011 #
b101111110100110100111101001111 $
b101111110100110100111101001111 %
b101111111110011010011110100111 &
b100010 '
b10110 (
b101111110100110100111101001111 )
1*
b101111110000010000001111000110 +
b101111101001001001011100010011 ,
b101111111110011010011110100111 -
1.
b101111110100110100111101001111 /
b101111110100110100111101001111 0
#680000000
0!
0*
0.
#690000000
1!
b101111011110100010010111001000 "
b101111100010111101100111000000 #
b101111101001000111011001010010 $
b101111101001000111011001010010 %
b101111100010111101100111000000 &
b100011 '
b10111 (
b101111101001000111011001010010 )
1*
b101111011110100010010111001000 +
b101111100010111101100111000000 ,
b101111100010111101100111000000 -
1.
b101111101001000111011001010010 /
b101111101001000111011001010010 0
#700000000
0!
0*
0.
#710000000
1!
b101111100000000011000001010001 "
b001111100001011010010100111000 #
b001111001010111010011100111000 $
b001111001010111010011100111000 %
b101100111000000000000000000000 &
b100100 '
b11000 (
b001111001010111010011100111000 )
1*
b101111100000000011000001010001 +
b001111100001011010010100111000 ,
b101100111000000000000000000000 -
1.
b001111001010111010011100111000 /
b001111001010111010011100111000 0
#720000000
0!
0*
0.
#730000000
1!
b101111101011110000000110100100 "
b101111110100010011000000101011 #
b101111111001000101100001111110 $
b101111111001000101100001111110 %
b101111111110001001100000010101 &
b100101 '
b11001 (
b101111111001000101100001111110 )
1*
b101111101011110000000110100100 +
b101111110100010011000000101011 ,
b101111111110001001100000010101 -
1.
b101111111001000101100001111110 /
b101111111001000101100001111110 0
#740000000
0!
0*
0.
#750000000
1!
b101111101011001110110001010000 "
b101111110010001110010001000010 #
b101111110111110101101001101010 $
b101111110111110101101001101010 %
b101111110010001110010001000010 &
b100110 '
b11010 (
b101111110111110101101001101010 )
1*
b101111101011001110110001010000 +
b101111110010001110010001000010 ,
b101111110010001110010001000010 -
1.
b101111110111110101101001101010 /
b101111110111110101101001101010 0
#760000000
0!
0*
0.
#770000000
1!
b001111011011110000111111110111 "
b101111101000000100010110011100 #
b101111100010010000001100111100 $
b101111100010010000001100111100 %
b101111100010010000001100111100 &
b100111 '
b11011 (
b101111100010010000001100111100 )
1*
b001111011011110000111111110111 +
b101111101000000100010110011100 ,
b101111100010010000001100111100 -
1.
b101111100010010000001100111100 /
b101111100010010000001100111100 0
#780000000
0!
0*
0.
#790000000
1!
b101111110001101010100100010111 "
b101111000010000010011000001101 #
b101111110001110100100110101111 $
b101111110001110100100110101111 %
b101111111100111010010011010111 &
b101000 '
b101111110001110100100110101111 )
1*
b101111110001101010100100010111 +
b101111000010000010011000001101 ,
b101111111100111010010011010111 -
1.
b101111110001110100100110101111 /
b101111110001110100100110101111 0
#800000000
0!
0*
0.
#810000000
1!
b001111101101010011011111010100 "
b101111100010111100011001101101 #
b001111100111101010100100111011 $
b001111100111101010100100111011 %
b001111101111110101010010011101 &
b101001 '
b11100 (
b001111100111101010100100111011 )
1*
b001111101101010011011111010100 +
b101111100010111100011001101101 ,
b001111101111110101010010011101 -
1.
b001111100111101010100100111011 /
b001111100111101010100100111011 0
#820000000
0!
0*
0.
#830000000
1!
b001111100101011101110001000111 "
b101111100101110101110111001100 #
b101110111100000011000010100000 $
b101110111100000011000010100000 %
b001100111000000000000000000000 &
b101010 '
b11101 (
b101110111100000011000010100000 )
1*
b001111100101011101110001000111 +
b101111100101110101110111001100 ,
b001100111000000000000000000000 -
1.
b101110111100000011000010100000 /
b101110111100000011000010100000 0
#840000000
0!
0*
0.
#850000000
1!
b101111011011001000101100011101 "
b001111100011111100010001101001 #
b001111011100101111110110110101 $
b001111011100101111110110110101 %
b001111100110010111111011011010 &
b101011 '
b11110 (
b001111011100101111110110110101 )
1*
b101111011011001000101100011101 +
b001111100011111100010001101001 ,
b001111100110010111111011011010 -
1.
b001111011100101111110110110101 /
b001111011100101111110110110101 0
#860000000
0!
0*
0.
#870000000
1!
b101110111110111010001101100100 "
b001111011010100100010110010101 #
b001111011001101000101101011110 $
b001111011001101000101101011110 %
b001111011001101000101101011110 &
b101100 '
b11111 (
b001111011001101000101101011110 )
1*
b101110111110111010001101100100 +
b001111011010100100010110010101 ,
b001111011001101000101101011110 -
1.
b001111011001101000101101011110 /
b001111011001101000101101011110 0
#880000000
0!
0*
0.
#890000000
1!
b101111101001001100000010010111 "
b101111101111010110100000011000 #
b101111110100010001010001010111 $
b101111110100010001010001010111 %
b101111110100010001010001010111 &
b101101 '
b101111110100010001010001010111 )
1*
b101111101001001100000010010111 +
b101111101111010110100000011000 ,
b101111110100010001010001010111 -
1.
b101111110100010001010001010111 /
b101111110100010001010001010111 0
#900000000
0!
0*
0.
#910000000
1!
b101111101010100011111010001000 "
b101111101010001100010101011110 #
b101111110010011000000111110011 $
b101111110010011000000111110011 %
b101111101100110000001111100110 &
b101110 '
b101111110010011000000111110011 )
1*
b101111101010100011111010001000 +
b101111101010001100010101011110 ,
b101111101100110000001111100110 -
1.
b101111110010011000000111110011 /
b101111110010011000000111110011 0
#920000000
0!
0*
0.
#930000000
1!
b001111011111000111100110110100 "
b101111011100010010000001100001 #
b001111001011010110010101001100 $
b001111001011010110010101001100 %
b001100110000000000000000000000 &
b101111 '
b100000 (
b001111001011010110010101001100 )
1*
b001111011111000111100110110100 +
b101111011100010010000001100001 ,
b001100110000000000000000000000 -
1.
b001111001011010110010101001100 /
b001111001011010110010101001100 0
#940000000
0!
0*
0.
#950000000
1!
b001111101001000111110111010001 "
b001111101000010001001010110110 #
b001111110000101100100001000011 $
b001111110000101100100001000011 %
b001111110000101100100001000011 &
b110000 '
b100001 (
b001111110000101100100001000011 )
1*
b001111101001000111110111010001 +
b001111101000010001001010110110 ,
b001111110000101100100001000011 -
1.
b001111110000101100100001000011 /
b001111110000101100100001000011 0
#960000000
0!
0*
0.
#970000000
1!
b001111101100111100000001101011 "
b001111100001111100001110011101 #
b001111110000111101000100011100 $
b001111110000111101000100011100 %
b001111110000111101000100011100 &
b110001 '
b001111110000111101000100011100 )
1*
b001111101100111100000001101011 +
b001111100001111100001110011101 ,
b001111110000111101000100011100 -
1.
b001111110000111101000100011100 /
b001111110000111101000100011100 0
#980000000
0!
0*
0.
#990000000
1!
b101111010010011001100010101100 "
b101111101000110001110011010010 #
b101111101010000100111111100111 $
b101111101010000100111111100111 %
b101111101000110001110011010010 &
b110010 '
b101111101010000100111111100111 )
1*
b101111010010011001100010101100 +
b101111101000110001110011010010 ,
b101111101000110001110011010010 -
1.
b101111101010000100111111100111 /
b101111101010000100111111100111 0
#1000000000
0!
0*
0.
#1010000000
1!
b001111100100011001110001001100 "
b101111011110100110101000111011 #
b001111011010001100111001011101 $
b001111011010001100111001011101 %
b001111100101000110011100101110 &
b110011 '
b100010 (
b001111011010001100111001011101 )
1*
b001111100100011001110001001100 +
b101111011110100110101000111011 ,
b001111100101000110011100101110 -
1.
b001111011010001100111001011101 /
b001111011010001100111001011101 0
#1020000000
0!
0*
0.
#1030000000
1!
b001111110001111001100011011110 "
b001111001101000000110100001000 #
b001111110010010011100101000110 $
b001111110010010011100101000110 %
b001111110010010011100101000110 &
b110100 '
b100011 (
b001111110010010011100101000110 )
1*
b001111110001111001100011011110 +
b001111001101000000110100001000 ,
b001111110010010011100101000110 -
1.
b001111110010010011100101000110 /
b001111110010010011100101000110 0
#1040000000
0!
0*
0.
#1050000000
1!
b001111110011011101111000000010 "
b101111100111001010100010111101 #
b001111101111010110011110100101 $
b001111101111010110011110100101 %
b001111110111101011001111010010 &
b110101 '
b001111101111010110011110100101 )
1*
b001111110011011101111000000010 +
b101111100111001010100010111101 ,
b001111110111101011001111010010 -
1.
b001111101111010110011110100101 /
b001111101111010110011110100101 0
#1060000000
0!
0*
0.
#1070000000
1!
b101111011111001000110000010000 "
b001111110001000100010001010011 #
b001111101110010110010110100010 $
b001111101110010110010110100010 %
b001101001000000000000000000000 &
b110110 '
b100100 (
b001111101110010110010110100010 )
1*
b101111011111001000110000010000 +
b001111110001000100010001010011 ,
b001101001000000000000000000000 -
1.
b001111101110010110010110100010 /
b001111101110010110010110100010 0
#1080000000
0!
0*
0.
#1090000000
1!
b001111110011010100101101110011 "
b101111101100010001101110100000 #
b001111101010010111101101000110 $
b001111101010010111101101000110 %
b110111 '
b100101 (
b001111101010010111101101000110 )
1*
b001111110011010100101101110011 +
b101111101100010001101110100000 ,
1.
b001111101010010111101101000110 /
b001111101010010111101101000110 0
#1100000000
0!
0*
0.
#1110000000
1!
b101111010100111010110010111111 "
b001111001001110011001010001010 #
b101111010000000001001101111010 $
b101111010000000001001101111010 %
b101100101000000000000000000000 &
b111000 '
b100110 (
b101111010000000001001101111010 )
1*
b101111010100111010110010111111 +
b001111001001110011001010001010 ,
b101100101000000000000000000000 -
1.
b101111010000000001001101111010 /
b101111010000000001001101111010 0
#1120000000
0!
0*
0.
#1130000000
1!
b101111100110001110111100000100 "
b001111011111111000110101101011 #
b101111011100100101000010011101 $
b101111011100100101000010011101 %
b101111100110010010100001001110 &
b111001 '
b100111 (
b101111011100100101000010011101 )
1*
b101111100110001110111100000100 +
b001111011111111000110101101011 ,
b101111100110010010100001001110 -
1.
b101111011100100101000010011101 /
b101111011100100101000010011101 0
#1140000000
0!
0*
0.
#1150000000
1!
b001111100011011001110110101011 "
b101111100100010101100001101111 #
b101111000110111010110001000000 $
b101111000110111010110001000000 %
b001100111000000000000000000000 &
b111010 '
b101000 (
b101111000110111010110001000000 )
1*
b001111100011011001110110101011 +
b101111100100010101100001101111 ,
b001100111000000000000000000000 -
1.
b101111000110111010110001000000 /
b101111000110111010110001000000 0
#1160000000
0!
0*
0.
#1170000000
1!
b101111001000001001001011011101 "
b101111100101000001100110111110 #
b101111100110000010110000011001 $
b101111100110000010110000011001 %
b101111100101000001100110111110 &
b111011 '
b101001 (
b101111100110000010110000011001 )
1*
b101111001000001001001011011101 +
b101111100101000001100110111110 ,
b101111100101000001100110111110 -
1.
b101111100110000010110000011001 /
b101111100110000010110000011001 0
#1180000000
0!
0*
0.
#1190000000
1!
b001111101011110001100101010011 "
b101111101010010100010001101111 #
b001111010011101010011100100000 $
b001111010011101010011100100000 %
b001101000000000000000000000000 &
b111100 '
b101010 (
b001111010011101010011100100000 )
1*
b001111101011110001100101010011 +
b101111101010010100010001101111 ,
b001101000000000000000000000000 -
1.
b001111010011101010011100100000 /
b001111010011101010011100100000 0
#1200000000
0!
0*
0.
#1210000000
1!
b001111100101010101010101011001 "
b101111101001011101001011000110 #
b101111011011001010000001100110 $
b101111011011001010000001100110 %
b101111101010110010100000011001 &
b111101 '
b101011 (
b101111011011001010000001100110 )
1*
b001111100101010101010101011001 +
b101111101001011101001011000110 ,
b101111101010110010100000011001 -
1.
b101111011011001010000001100110 /
b101111011011001010000001100110 0
#1220000000
0!
0*
0.
#1230000000
1!
b101111101111101011111001000001 "
b101111101100011011101011000010 #
b101111110110000011110010000001 $
b101111110110000011110010000001 %
b101111110110000011110010000001 &
b111110 '
b101100 (
b101111110110000011110010000001 )
1*
b101111101111101011111001000001 +
b101111101100011011101011000010 ,
b101111110110000011110010000001 -
1.
b101111110110000011110010000001 /
b101111110110000011110010000001 0
#1240000000
0!
0*
0.
#1250000000
1!
b101111110111010100111000010111 "
b001111011010000110010011011101 #
b101111110110000100000101111011 $
b101111110110000100000101111011 %
b101111101100001000001011110110 &
b111111 '
b101111110110000100000101111011 )
1*
b101111110111010100111000010111 +
b001111011010000110010011011101 ,
b101111101100001000001011110110 -
1.
b101111110110000100000101111011 /
b101111110110000100000101111011 0
#1260000000
0!
0*
0.
#1270000000
1!
b001111100010111100001100011011 "
b001111100110010100100000101000 #
b001111101100101000010110100001 $
b001111101100101000010110100001 %
b001111101100101000010110100001 &
b1000000 '
b101101 (
b001111101100101000010110100001 )
1*
b001111100010111100001100011011 +
b001111100110010100100000101000 ,
b001111101100101000010110100001 -
1.
b001111101100101000010110100001 /
b001111101100101000010110100001 0
#1280000000
0!
0*
0.
#1290000000
1!
b101111101010001101011101100101 "
b001111100100000001001010011001 #
b101111100000011001110000110001 $
b101111100000011001110000110001 %
b101111101100001100111000011000 &
b1000001 '
b101111100000011001110000110001 )
1*
b101111101010001101011101100101 +
b001111100100000001001010011001 ,
b101111101100001100111000011000 -
1.
b101111100000011001110000110001 /
b101111100000011001110000110001 0
#1300000000
0!
0*
0.
#1310000000
1!
b001111101001001100000101010011 "
b001111011010100111100001100111 #
b001111101011110101111101101100 $
b001111101011110101111101101100 %
b001111101011110101111101101100 &
b1000010 '
b101110 (
b001111101011110101111101101100 )
1*
b001111101001001100000101010011 +
b001111011010100111100001100111 ,
b001111101011110101111101101100 -
1.
b001111101011110101111101101100 /
b001111101011110101111101101100 0
#1320000000
0!
0*
0.
#1330000000
1!
b001111110000000000011000001001 "
b101111101100100100111010010011 #
b001111011101101111010111111100 $
b001111011101101111010111111100 %
b001111110001101101111010111111 &
b1000011 '
b001111011101101111010111111100 )
1*
b001111110000000000011000001001 +
b101111101100100100111010010011 ,
b001111110001101101111010111111 -
1.
b001111011101101111010111111100 /
b001111011101101111010111111100 0
#1340000000
0!
0*
0.
#1350000000
1!
b101111101001111010000101110110 "
b001111101111101011000111110110 #
b001111100011100010000100000000 $
b001111100011100010000100000000 %
b101101000000000000000000000000 &
b1000100 '
b101111 (
b001111100011100010000100000000 )
1*
b101111101001111010000101110110 +
b001111101111101011000111110110 ,
b101101000000000000000000000000 -
1.
b001111100011100010000100000000 /
b001111100011100010000100000000 0
#1360000000
0!
0*
0.
#1370000000
1!
b001111101010001100110000001001 "
b001111011111101001111010101101 #
b001111101110000111001110110100 $
b001111101110000111001110110100 %
b001111101110000111001110110100 &
b1000101 '
b110000 (
b001111101110000111001110110100 )
1*
b001111101010001100110000001001 +
b001111011111101001111010101101 ,
b001111101110000111001110110100 -
1.
b001111101110000111001110110100 /
b001111101110000111001110110100 0
#1380000000
0!
0*
0.
#1390000000
1!
b001111010100110101001001111111 "
b101111011011001000101001110000 #
b101111010001011100001001100001 $
b101111010001011100001001100001 %
b101111011100101110000100110000 &
b1000110 '
b101111010001011100001001100001 )
1*
b001111010100110101001001111111 +
b101111011011001000101001110000 ,
b101111011100101110000100110000 -
1.
b101111010001011100001001100001 /
b101111010001011100001001100001 0
#1400000000
0!
0*
0.
#1410000000
1!
b101111100011111000001110101000 "
b101111101000010111000010111100 #
b101111101110010011001010010000 $
b101111101110010011001010010000 %
b101111101000010111000010111100 &
b1000111 '
b110001 (
b101111101110010011001010010000 )
1*
b101111100011111000001110101000 +
b101111101000010111000010111100 ,
b101111101000010111000010111100 -
1.
b101111101110010011001010010000 /
b101111101110010011001010010000 0
#1420000000
0!
0*
0.
#1430000000
1!
b001111101111111011011011100000 "
b001111101001111010001101101111 #
b001111110100111010110100100111 $
b001111110100111010110100100111 %
b001111110100111010110100100111 &
b1001000 '
b110010 (
b001111110100111010110100100111 )
1*
b001111101111111011011011100000 +
b001111101001111010001101101111 ,
b001111110100111010110100100111 -
1.
b001111110100111010110100100111 /
b001111110100111010110100100111 0
#1440000000
0!
0*
0.
#1450000000
1!
b101111100010011101001100110001 "
b001111010000011100010111101010 #
b101111100000010110000110110110 $
b101111100000010110000110110110 %
b101111100000010110000110110110 &
b1001001 '
b101111100000010110000110110110 )
1*
b101111100010011101001100110001 +
b001111010000011100010111101010 ,
b101111100000010110000110110110 -
1.
b101111100000010110000110110110 /
b101111100000010110000110110110 0
#1460000000
0!
0*
0.
